[
  {
    "term": {
      "@id": "landTransformationFromOtherNaturalVegetation20YearAverageInputsProduction",
      "@type": "Term"
    },
    "value": 0.041379310344827586,
    "@type": "Indicator"
  }
]
