[
  {
    "@type": "Indicator",
    "term": {
      "@type": "Term",
      "@id": "landTransformationFromTemporaryCropland100YearAverageDuringCycle"
    },
    "methodModel": {
      "@type": "Term",
      "@id": "faostat2018"
    },
    "value": 0.0183874491113097
  },
  {
    "@type": "Indicator",
    "term": {
      "@type": "Term",
      "@id": "landTransformationFromPermanentCropland100YearAverageDuringCycle"
    },
    "methodModel": {
      "@type": "Term",
      "@id": "faostat2018"
    },
    "value": 0.0016125508886902988
  }
]
