{
  "@type": "Transformation",
  "transformationId": "tr-1",
  "term": {
    "@type": "Term",
    "name": "Poultry manure with litter",
    "termType": "excretaManagement",
    "@id": "poultryManureWithLitter"
  },
  "inputs": [
    {
      "term": {
        "@type": "Term",
        "name": "Excreta, poultry (kg mass)",
        "termType": "excreta",
        "@id": "excretaPoultryKgMass",
        "units": "kg"
      },
      "properties": [
        {
          "@type": "Property",
          "term": {
            "@type": "Term",
            "@id": "nitrogenContent",
            "units": "%"
          },
          "value": 0.756
        },
        {
          "term": {
            "@type": "Term",
            "@id": "volatileSolidsContent",
            "units": "%"
          },
          "value": 18.97904033408235,
          "@type": "Property"
        }
      ],
      "value": [
        1
      ],
      "@type": "Input",
      "fromCycle": true
    },
    {
      "term": {
        "@type": "Term",
        "name": "Excreta, poultry (kg N)",
        "termType": "excreta",
        "@id": "excretaPoultryKgN",
        "units": "kg N"
      },
      "properties": [
        {
          "term": {
            "@type": "Term",
            "@id": "volatileSolidsContent",
            "units": "%"
          },
          "value": 1490.6951744738524,
          "@type": "Property"
        }
      ],
      "value": [
        1
      ],
      "@type": "Input",
      "fromCycle": true
    },
    {
      "term": {
        "@type": "Term",
        "name": "Excreta, poultry (kg VS)",
        "termType": "excreta",
        "@id": "excretaPoultryKgVs",
        "units": "kg VS"
      },
      "properties": [
        {
          "term": {
            "@type": "Term",
            "@id": "nitrogenContent",
            "units": "%"
          },
          "value": 3.9818955574516113,
          "@type": "Property"
        }
      ],
      "value": [
        1
      ],
      "@type": "Input",
      "fromCycle": true
    }
  ],
  "products": [
    {
      "term": {
        "@type": "Term",
        "name": "Excreta, poultry (kg mass)",
        "termType": "excreta",
        "@id": "excretaPoultryKgMass",
        "units": "kg"
      },
      "@type": "Product"
    },
    {
      "term": {
        "@type": "Term",
        "name": "Excreta, poultry (kg VS)",
        "termType": "excreta",
        "@id": "excretaPoultryKgVs",
        "units": "kg VS"
      },
      "@type": "Product"
    }
  ],
  "emissions": [
    {
      "term": {
        "@type": "Term",
        "name": "NH3, to air, excreta",
        "termType": "emission",
        "@id": "nh3ToAirExcreta",
        "units": "kg NH3"
      },
      "value": [
        0.001
      ],
      "methodModel": {
        "@type": "Term",
        "name": "EMEA-EEA (2019)",
        "termType": "model",
        "@id": "emepEea2019"
      },
      "methodTier": "tier 2",
      "@type": "Emission"
    },
    {
      "term": {
        "@type": "Term",
        "name": "NOx, to air, excreta",
        "termType": "emission",
        "@id": "noxToAirExcreta",
        "units": "kg NOx"
      },
      "value": [
        0.001
      ],
      "methodModel": {
        "@type": "Term",
        "name": "EMEA-EEA (2019)",
        "termType": "model",
        "@id": "emepEea2019"
      },
      "methodTier": "tier 2",
      "@type": "Emission"
    },
    {
      "term": {
        "@type": "Term",
        "name": "N2O, to air, excreta, direct",
        "termType": "emission",
        "@id": "n2OToAirExcretaDirect",
        "units": "kg N2O"
      },
      "value": [
        0.001
      ],
      "methodModel": {
        "@type": "Term",
        "name": "EMEA-EEA (2019)",
        "termType": "model",
        "@id": "emepEea2019"
      },
      "methodTier": "tier 2",
      "@type": "Emission"
    },
    {
      "term": {
        "@type": "Term",
        "name": "N2, to air, excreta",
        "termType": "emission",
        "@id": "n2ToAirExcreta",
        "units": "kg N2"
      },
      "value": [
        0.001
      ],
      "methodModel": {
        "@type": "Term",
        "name": "EMEA-EEA (2019)",
        "termType": "model",
        "@id": "emepEea2019"
      },
      "methodTier": "tier 2",
      "@type": "Emission"
    },
    {
      "term": {
        "@type": "Term",
        "name": "CH4, to air, excreta",
        "termType": "emission",
        "@id": "ch4ToAirExcreta",
        "units": "kg CH4"
      },
      "value": [
        0.001
      ],
      "methodModel": {
        "@type": "Term",
        "name": "EMEA-EEA (2019)",
        "termType": "model",
        "@id": "emepEea2019"
      },
      "methodTier": "tier 2",
      "@type": "Emission"
    }
  ]
}
