[
  {
    "term": {
      "@id": "landTransformationFromForest100YearAverageDuringCycle",
      "@type": "Term"
    },
    "value": 3.4482758620689653,
    "@type": "Indicator",
    "methodModel": {
      "@type": "Term",
      "@id": "hyde32"
    }
  }
]
