{
  "id": "fake-cycle",
  "type": "Cycle",
  "name": "fake cycle",
  "dataPrivate": true,
  "functionalUnit": "1 ha",
  "endDate": "2012",
  "cycleDuration": 365,
  "site": {
    "id": "fake-site",
    "type": "Site",
    "country": {
      "@type": "Term",
      "termType": "region",
      "name": "Australia",
      "@id": "GADM-AUS"
    }
  },
  "products": [
    {
      "term": {
        "@type": "Term",
        "termType": "animalProduct",
        "units": "kg cold carcass weight",
        "@id": "meatPigColdCarcassWeight"
      },
      "value": [
        72.17112
      ],
      "primary": true,
      "@type": "Product"
    },
    {
      "term": {
        "@type": "Term",
        "termType": "animalProduct",
        "@id": "offalPigs",
        "units": "kg"
      },
      "value": [
        22.8
      ],
      "@type": "Product"
    }
  ],
  "completeness": {
    "@type": "Completeness",
    "electricityFuel": true,
    "material": true,
    "fertiliser": true,
    "other": true,
    "pesticidesAntibiotics": true,
    "soilAmendments": true,
    "water": true,
    "products": true,
    "cropResidue": true,
    "animalFeed": true,
    "transport": false,
    "excreta": true,
    "waste": true,
    "liveAnimals": true,
    "operations": true
  },
  "defaultMethodClassification": "modelled",
  "defaultMethodClassificationDescription": "description"
}
