{
  "id": "fake-site",
  "type": "Site",
  "defaultSource": {
    "id": "olcc1ydvrt",
    "type": "Source"
  },
  "dataPrivate": false,
  "name": "Field -11.77, -45.72",
  "country": {
    "@id": "GADM-BRA",
    "@type": "Term",
    "name": "Brazil"
  },
  "latitude": -11.77,
  "longitude": -45.72,
  "siteType": "cropland",
  "measurements": [
    {
      "term": {
        "@id": "temperatureAnnual",
        "name": "Temperature (annual)",
        "@type": "Term",
        "termType": "measurement"
      },
      "value": [
        19
      ],
      "@type": "Measurement",
      "methodClassification": "modelled using other physical measurements"
    }
  ]
}
