[
  {
    "@type": "Product",
    "term": {
      "@type": "Term",
      "@id": "excretaSolidAndLiquidFishCrustaceansKgVs"
    },
    "value": [
      0.2507402130333334
    ],
    "statsDefinition": "modelled",
    "model": {
      "@type": "Term",
      "@id": "pooreNemecek2018"
    }
  }
]
