[
  {
    "@type": "Input",
    "term": {
      "@id": "potassiumMetaphosphateKgK2O",
      "@type": "Term"
    },
    "value": [
      67.27272727272727
    ],
    "statsDefinition": "modelled"
  },
  {
    "@type": "Input",
    "term": {
      "@id": "diammoniumPhosphateKgP2O5",
      "@type": "Term"
    },
    "value": [
      235.89743589743588
    ],
    "statsDefinition": "modelled"
  },
  {
    "@type": "Input",
    "term": {
      "@id": "nitricPhosphateKgP2O5",
      "@type": "Term"
    },
    "value": [
      88.88888888888889
    ],
    "max": [
      100
    ],
    "min": [
      71.42857142857143
    ],
    "statsDefinition": "modelled"
  }
]
