[
  {
    "@type": "Measurement",
    "term": {
      "@type": "Term",
      "@id": "ecoClimateZone"
    },
    "description": "Tropical Wet",
    "value": [
      10
    ],
    "statsDefinition": "spatial",
    "methodClassification": "geospatial dataset"
  }
]
