[
  {
    "term": {
      "@id": "wheatGrain",
      "@type": "Term"
    },
    "properties": [
      {
        "term": {
          "@type": "Term",
          "name": "Nitrogen content",
          "termType": "property",
          "@id": "nitrogenContent",
          "units": "%"
        },
        "value": 70,
        "@type": "Property"
      },
      {
        "term": {
          "@type": "Term",
          "name": "Dry matter",
          "termType": "property",
          "@id": "dryMatter",
          "units": "%"
        },
        "value": 50,
        "@type": "Property"
      }
    ],
    "impactAssessment": {
      "type": "ImpactAssessment",
      "id": "impact-1"
    },
    "@type": "Input",
    "impactAssessmentIsProxy": true
  }
]
