{
  "@type": "Indicator",
  "term": {
    "@type": "Term",
    "@id": "marineEutrophicationPotential"
  },
  "methodModel": {
    "@type": "Term",
    "@id": "recipe2016Individualist"
  },
  "value": 0.002439757428938862
}
