{
  "@type": "Indicator",
  "term": {
    "@type": "Term",
    "@id": "damageToFreshwaterEcosystemsFreshwaterEutrophication"
  },
  "methodModel": {
    "@type": "Term",
    "@id": "lcImpactAllEffects100Years"
  },
  "value": 3.9377604382086203e-16
}
