{
  "@id": "fake-site",
  "@type": "Site",
  "dataPrivate": true,
  "country": {
    "@id": "GADM-BRA",
    "@type": "Term",
    "name": "Brazil"
  },
  "siteType": "cropland",
  "measurements": [
    {
      "@type": "Measurement",
      "term": {
        "@type": "Term",
        "@id": "temperatureMonthly"
      },
      "value": [
        0.14333333333333334,
        1.167741935483871,
        4.0633333333333335,
        1.7548387096774194,
        2.0709677419354837,
        0.89,
        2.6774193548387095,
        0.39,
        1.332258064516129,
        1.5806451612903227,
        0.8964285714285715,
        1.1,
        0.9933333333333333,
        1.7161290322580645,
        0.5166666666666666,
        2.6,
        1.3064516129032258,
        0.48333333333333334,
        1.4451612903225806,
        2.64,
        1.7354838709677418
      ],
      "dates": [
        "2020-04",
        "2020-05",
        "2020-06",
        "2020-07",
        "2020-08",
        "2020-09",
        "2020-10",
        "2020-11",
        "2020-12",
        "2021-01",
        "2021-02",
        "2021-03",
        "2021-04",
        "2021-05",
        "2021-06",
        "2021-07",
        "2021-08",
        "2021-09",
        "2021-10",
        "2021-11",
        "2021-12"
      ],
      "statsDefinition": "modelled",
      "methodClassification": "modelled using other physical measurements"
    }
  ]
}
