[
  {
    "term": {
      "@id": "n2OToAirCropResidueDecompositionDirect",
      "@type": "Term"
    },
    "value": [
      0.10262103572069287
    ],
    "methodTier": "tier 2",
    "@type": "Emission",
    "methodModel": {
      "@type": "Term",
      "@id": "stehfestBouwman2006"
    },
    "statsDefinition": "modelled"
  }
]
