{
  "id": "fake-impact",
  "type": "ImpactAssessment",
  "allocationMethod": "none required",
  "country": {
    "@id": "GADM-AUS",
    "@type": "Term",
    "name": "Australia",
    "termType": "region"
  },
  "cycle": {
    "id": "fake-cycle",
    "type": "Cycle",
    "site": {
      "id": "fake-site",
      "type": "Site"
    },
    "inputs": [
      {
        "term": {
          "@id": "waterPumpedGroundwater",
          "@type": "Term",
          "name": "Water, Pumped ground water",
          "units": "mm",
          "termType": "water"
        },
        "value": [
          114.5
        ],
        "@type": "Input"
      }
    ],
    "defaultMethodClassificationDescription": "description"
  },
  "endDate": "2010",
  "functionalUnitQuantity": 1,
  "product": {
    "@type": "Product",
    "term": {
      "@type": "Term",
      "name": "Cereals, grain",
      "termType": "crop",
      "@id": "cerealGrain",
      "units": "kg"
    },
    "value": [
      2900
    ],
    "economicValueShare": 100
  },
  "source": {
    "id": "fake-source",
    "type": "Source"
  },
  "dataPrivate": false
}
