{
  "id": "fake-site",
  "type": "Site",
  "defaultSource": {
    "id": "olcc1ydvrt",
    "type": "Source"
  },
  "dataPrivate": false,
  "name": "Field -11.77, -45.72",
  "country": {
    "@id": "GADM-BRA",
    "@type": "Term",
    "name": "Brazil"
  },
  "latitude": -11.77,
  "longitude": -45.72,
  "siteType": "cropland",
  "measurements": [
    {
      "term": {
        "@id": "clayContent",
        "@type": "Term",
        "units": "%",
        "termType": "measurement"
      },
      "value": [
        65
      ],
      "depthLower": 30,
      "depthUpper": 0,
      "@type": "Measurement",
      "methodClassification": "unsourced assumption"
    },
    {
      "term": {
        "@id": "sandContent",
        "@type": "Term",
        "units": "%",
        "termType": "measurement"
      },
      "value": [
        11
      ],
      "depthLower": 30,
      "depthUpper": 0,
      "@type": "Measurement",
      "methodClassification": "unsourced assumption"
    }
  ]
}
