{
  "@type": "Indicator",
  "term": {
    "@type": "Term",
    "@id": "humanCarcinogenicToxicity"
  },
  "methodModel": {
    "@type": "Term",
    "@id": "recipe2016Egalitarian"
  },
  "value": 0.15855834591824616
}
