{
  "id": "fake-impact",
  "type": "ImpactAssessment",
  "allocationMethod": "none required",
  "country": {
    "@id": "GADM-AUS",
    "@type": "Term",
    "name": "Australia"
  },
  "cycle": {
    "id": "fake-cycle",
    "type": "Cycle",
    "site": {
      "id": "fake-site",
      "type": "Site",
      "awareWaterBasinId": "2424"
    },
    "defaultMethodClassificationDescription": "description"
  },
  "emissionsResourceUse": [
    {
      "@type": "Indicator",
      "term": {
        "@type": "Term",
        "@id": "freshwaterWithdrawalsDuringCycle"
      },
      "value": 39.48275862068965,
      "methodModel": {
        "@type": "Term",
        "@id": "aware"
      }
    }
  ],
  "endDate": "2010",
  "functionalUnitQuantity": 1,
  "product": {
    "@type": "Product",
    "term": {
      "@type": "Term",
      "name": "Cereals, grain",
      "termType": "crop",
      "@id": "cerealGrain",
      "units": "kg"
    }
  },
  "source": {
    "id": "fake-source",
    "type": "Source"
  },
  "dataPrivate": false
}
