{
  "id": "fake-cycle",
  "type": "Cycle",
  "name": "fake cycle",
  "functionalUnit": "1 ha",
  "defaultSource": {
    "id": "fake-source",
    "type": "Source"
  },
  "dataPrivate": false,
  "site": {
    "id": "fake-site",
    "type": "Site",
    "siteType": "cropland"
  },
  "endDate": "2009",
  "cycleDuration": 365,
  "inputs": [
    {
      "term": {
        "@type": "Term",
        "name": "Manure, fresh (kg N)",
        "termType": "organicFertiliser",
        "@id": "manureFreshKgN",
        "units": "kg N"
      },
      "value": [
        17.0275229
      ],
      "@type": "Input"
    },
    {
      "term": {
        "@type": "Term",
        "name": "Manure, fresh (kg mass)",
        "@id": "manureFreshKgMass",
        "termType": "organicFertiliser",
        "units": "kg",
        "defaultProperties": [
          {
            "term": {
              "@type": "Term",
              "name": "Nitrogen content",
              "termType": "property",
              "@id": "nitrogenContent",
              "units": "%"
            },
            "value": 0.529724771,
            "sd": 0.538101014,
            "@type": "Property"
          }
        ]
      },
      "value": [
        100
      ],
      "@type": "Input"
    }
  ],
  "completeness": {
    "@type": "Completeness",
    "electricityFuel": true,
    "material": true,
    "fertiliser": true,
    "other": true,
    "pesticidesAntibiotics": true,
    "soilAmendments": true,
    "water": true,
    "products": true,
    "cropResidue": true,
    "animalFeed": true,
    "transport": false,
    "excreta": true,
    "waste": true,
    "liveAnimals": true,
    "operations": true
  },
  "defaultMethodClassification": "modelled",
  "defaultMethodClassificationDescription": "description"
}
