[
  {
    "@type": "Emission",
    "term": {
      "@type": "Term",
      "@id": "no3ToGroundwaterInorganicFertiliser"
    },
    "methodModel": {
      "@type": "Term",
      "@id": "ipcc2019"
    },
    "value": [
      106.23945170272005
    ],
    "min": [
      4.426643820946669
    ],
    "max": [
      323.1449989291068
    ],
    "sd": [
      79.67958877704004
    ],
    "statsDefinition": "modelled",
    "methodTier": "tier 1"
  }
]
