{
  "id": "fake-cycle",
  "type": "Cycle",
  "name": "fake cycle",
  "functionalUnit": "1 ha",
  "defaultSource": {
    "id": "fake-source",
    "type": "Source"
  },
  "dataPrivate": false,
  "endDate": "2009",
  "cycleDuration": 365,
  "site": {
    "id": "fake-site",
    "type": "Site",
    "siteType": "cropland"
  },
  "products": [
    {
      "@type": "Product",
      "term": {
        "@id": "aboveGroundCropResidueTotal",
        "@type": "Term"
      },
      "properties": [
        {
          "term": {
            "@type": "Term",
            "@id": "nitrogenContent",
            "units": "%"
          },
          "value": 1,
          "@type": "Property"
        }
      ],
      "value": [
        100
      ]
    },
    {
      "@type": "Product",
      "term": {
        "@type": "Term",
        "@id": "aboveGroundCropResidueLeftOnField"
      },
      "value": [
        50
      ]
    },
    {
      "@type": "Product",
      "term": {
        "@id": "discardedCropTotal",
        "@type": "Term"
      },
      "properties": [
        {
          "term": {
            "@type": "Term",
            "@id": "nitrogenContent",
            "units": "%"
          },
          "value": 1,
          "@type": "Property"
        }
      ],
      "value": [
        100
      ]
    },
    {
      "@type": "Product",
      "term": {
        "@type": "Term",
        "@id": "discardedCropLeftOnField"
      },
      "value": [
        50
      ]
    }
  ],
  "completeness": {
    "@type": "Completeness",
    "electricityFuel": true,
    "material": true,
    "fertiliser": true,
    "other": true,
    "pesticidesAntibiotics": true,
    "soilAmendments": true,
    "water": true,
    "products": true,
    "cropResidue": true,
    "animalFeed": true,
    "transport": false,
    "excreta": true,
    "waste": true,
    "liveAnimals": true,
    "operations": true
  },
  "defaultMethodClassification": "modelled",
  "defaultMethodClassificationDescription": "description"
}
