[
  {
    "@type": "Product",
    "term": {
      "@type": "Term",
      "@id": "excretaSolidAndLiquidFishCrustaceansKgN"
    },
    "value": [
      0.087384
    ],
    "statsDefinition": "modelled",
    "model": {
      "@type": "Term",
      "@id": "pooreNemecek2018"
    }
  }
]
