[
  {
    "@type": "Measurement",
    "term": {
      "@type": "Term",
      "@id": "totalNitrogenPerKgSoil"
    },
    "value": [
      0.18467090909090908
    ],
    "depthUpper": 0,
    "depthLower": 50,
    "statsDefinition": "modelled",
    "methodClassification": "modelled using other physical measurements"
  }
]
