{
  "id": "fake-site",
  "type": "Site",
  "defaultSource": {
    "id": "olcc1ydvrt",
    "type": "Source"
  },
  "dataPrivate": false,
  "name": "Field -11.77, -45.72",
  "country": {
    "@id": "GADM-BRA",
    "@type": "Term",
    "name": "Brazil"
  },
  "latitude": -11.77,
  "longitude": -45.72,
  "siteType": "cropland",
  "measurements": [
    {
      "@type": "Measurement",
      "term": {
        "@type": "Term",
        "@id": "organicCarbonPerKgSoil"
      },
      "value": [
        5.2
      ],
      "depthUpper": 0,
      "depthLower": 30,
      "methodClassification": "modelled using other physical measurements"
    }
  ]
}
