[
  {
    "@type": "Product",
    "term": {
      "@type": "Term",
      "@id": "aboveGroundCropResidueTotal"
    },
    "value": [
      1928.3999999999999
    ],
    "statsDefinition": "modelled",
    "model": {
      "@type": "Term",
      "@id": "ipcc2019"
    }
  }
]
